[
  {
    "_id": "5d8492e9a18608ea453aaaf2",
    "index": 0,
    "archived": true,
    "hits": 761,
    "tag": "reprehenderit",
    "last_updated": "2016-08-12T08:11:09 -02:00",
    "label_color": [
      150,
      71,
      149
    ],
    "children": [
      "exercitation",
      "dolore",
      "ipsum",
      "tempor",
      "amet"
    ]
  },
  {
    "_id": "5d8492e928378a37581ffccf",
    "index": 1,
    "archived": false,
    "hits": 572,
    "tag": "cillum",
    "last_updated": "2018-09-04T03:18:24 -02:00",
    "label_color": [
      42,
      41,
      50
    ],
    "children": [
      "consectetur",
      "ea",
      "excepteur"
    ]
  },
  {
    "_id": "5d8492e9a217d562156d8138",
    "index": 2,
    "archived": false,
    "hits": 341,
    "tag": "sit",
    "last_updated": "2015-05-09T07:43:51 -02:00",
    "label_color": [
      153,
      182,
      46
    ],
    "children": [
      "aute",
      "sit",
      "culpa"
    ]
  },
  {
    "_id": "5d8492e919fa5ebed29400e2",
    "index": 3,
    "archived": false,
    "hits": 800,
    "tag": "irure",
    "last_updated": "2017-02-21T10:09:42 -01:00",
    "label_color": [
      97,
      22,
      182
    ],
    "children": [
      "in",
      "labore",
      "ad",
      "cupidatat"
    ]
  },
  {
    "_id": "5d8492e96ece390a7a4e0a35",
    "index": 4,
    "archived": false,
    "hits": 534,
    "tag": "excepteur",
    "last_updated": "2016-11-02T10:15:29 -01:00",
    "label_color": [
      60,
      9,
      247
    ],
    "children": [
      "incididunt",
      "do",
      "enim",
      "irure",
      "minim",
      "fugiat"
    ]
  },
  {
    "_id": "5d8492e99eab3fd813fe33ab",
    "index": 5,
    "archived": false,
    "hits": 731,
    "tag": "eiusmod",
    "last_updated": "2016-07-31T08:07:22 -02:00",
    "label_color": [
      65,
      180,
      174
    ],
    "children": []
  },
  {
    "_id": "5d8492e90c7c678f03cabab1",
    "index": 6,
    "archived": false,
    "hits": 653,
    "tag": "fugiat",
    "last_updated": "2018-09-07T05:36:49 -02:00",
    "label_color": [
      232,
      247,
      218
    ],
    "children": [
      "id",
      "adipisicing",
      "pariatur",
      "fugiat",
      "anim",
      "ea",
      "sint",
      "aute",
      "consectetur"
    ]
  },
  {
    "_id": "5d8492e98663496aa97827b4",
    "index": 7,
    "archived": true,
    "hits": 41,
    "tag": "exercitation",
    "last_updated": "2014-05-08T08:30:48 -02:00",
    "label_color": [
      122,
      239,
      39
    ],
    "children": [
      "aute",
      "fugiat",
      "eiusmod"
    ]
  },
  {
    "_id": "5d8492e908c2661193959869",
    "index": 8,
    "archived": true,
    "hits": 322,
    "tag": "sint",
    "last_updated": "2016-09-04T02:20:40 -02:00",
    "label_color": [
      15,
      167,
      131
    ],
    "children": [
      "anim"
    ]
  },
  {
    "_id": "5d8492e9e08712eeabd9d891",
    "index": 9,
    "archived": true,
    "hits": 168,
    "tag": "amet",
    "last_updated": "2018-07-07T05:50:10 -02:00",
    "label_color": [
      37,
      202,
      253
    ],
    "children": [
      "culpa",
      "qui",
      "aute",
      "deserunt",
      "quis",
      "quis"
    ]
  },
  {
    "_id": "5d8492e907c65a3683b79381",
    "index": 10,
    "archived": true,
    "hits": 686,
    "tag": "ullamco",
    "last_updated": "2014-01-22T09:04:10 -01:00",
    "label_color": [
      239,
      128,
      137
    ],
    "children": [
      "anim",
      "do"
    ]
  },
  {
    "_id": "5d8492e9aff2c71ded9d8c64",
    "index": 11,
    "archived": false,
    "hits": 560,
    "tag": "laboris",
    "last_updated": "2014-10-24T12:20:56 -02:00",
    "label_color": [
      44,
      237,
      227
    ],
    "children": [
      "irure",
      "ipsum",
      "adipisicing",
      "id",
      "proident",
      "ad",
      "occaecat"
    ]
  },
  {
    "_id": "5d8492e9d6bd55d90288ffae",
    "index": 12,
    "archived": false,
    "hits": 519,
    "tag": "adipisicing",
    "last_updated": "2014-01-09T11:08:28 -01:00",
    "label_color": [
      30,
      123,
      232
    ],
    "children": [
      "anim",
      "proident",
      "proident",
      "laborum",
      "quis",
      "consectetur",
      "amet",
      "non"
    ]
  },
  {
    "_id": "5d8492e93bf556a6569e02d7",
    "index": 13,
    "archived": true,
    "hits": 294,
    "tag": "velit",
    "last_updated": "2016-01-24T04:47:28 -01:00",
    "label_color": [
      140,
      31,
      47
    ],
    "children": [
      "non",
      "ex",
      "ad",
      "amet",
      "amet",
      "occaecat",
      "voluptate",
      "culpa",
      "quis",
      "est"
    ]
  },
  {
    "_id": "5d8492e900ba28858fb820dd",
    "index": 14,
    "archived": true,
    "hits": 30,
    "tag": "ipsum",
    "last_updated": "2015-02-18T01:54:24 -01:00",
    "label_color": [
      197,
      137,
      131
    ],
    "children": [
      "nulla",
      "mollit",
      "nostrud",
      "qui",
      "ex",
      "laborum",
      "consectetur"
    ]
  },
  {
    "_id": "5d8492e99bde4a4b084f7742",
    "index": 15,
    "archived": false,
    "hits": 15,
    "tag": "cillum",
    "last_updated": "2018-08-18T02:19:12 -02:00",
    "label_color": [
      10,
      163,
      79
    ],
    "children": [
      "commodo",
      "culpa",
      "elit",
      "deserunt",
      "occaecat",
      "aliqua"
    ]
  },
  {
    "_id": "5d8492e9a53e745886d36d8f",
    "index": 16,
    "archived": false,
    "hits": 758,
    "tag": "sunt",
    "last_updated": "2015-01-02T05:16:07 -01:00",
    "label_color": [
      69,
      193,
      75
    ],
    "children": [
      "pariatur",
      "reprehenderit",
      "exercitation",
      "consequat",
      "adipisicing",
      "aliqua",
      "anim",
      "proident",
      "commodo",
      "irure"
    ]
  },
  {
    "_id": "5d8492e9b9fbc0d2b141e60b",
    "index": 17,
    "archived": true,
    "hits": 381,
    "tag": "veniam",
    "last_updated": "2018-01-30T02:03:05 -01:00",
    "label_color": [
      151,
      177,
      215
    ],
    "children": [
      "mollit",
      "qui",
      "et",
      "nulla"
    ]
  },
  {
    "_id": "5d8492e9cf12f988176e09da",
    "index": 18,
    "archived": false,
    "hits": 712,
    "tag": "amet",
    "last_updated": "2018-06-14T02:16:13 -02:00",
    "label_color": [
      120,
      203,
      184
    ],
    "children": [
      "Lorem",
      "qui",
      "est",
      "proident"
    ]
  },
  {
    "_id": "5d8492e9e360f622d7736c93",
    "index": 19,
    "archived": true,
    "hits": 344,
    "tag": "reprehenderit",
    "last_updated": "2016-10-12T08:35:13 -02:00",
    "label_color": [
      132,
      188,
      26
    ],
    "children": []
  },
  {
    "_id": "5d8492e9037210150af92c03",
    "index": 20,
    "archived": false,
    "hits": 328,
    "tag": "dolore",
    "last_updated": "2016-04-18T02:31:01 -02:00",
    "label_color": [
      150,
      249,
      198
    ],
    "children": [
      "sunt",
      "aliqua",
      "do",
      "nostrud",
      "nostrud",
      "eu"
    ]
  },
  {
    "_id": "5d8492e9efc6b91816e19027",
    "index": 21,
    "archived": false,
    "hits": 15,
    "tag": "occaecat",
    "last_updated": "2014-04-29T02:03:39 -02:00",
    "label_color": [
      95,
      11,
      201
    ],
    "children": [
      "fugiat",
      "proident",
      "minim",
      "voluptate",
      "incididunt",
      "anim"
    ]
  },
  {
    "_id": "5d8492e9dae95d822f601e58",
    "index": 22,
    "archived": false,
    "hits": 279,
    "tag": "veniam",
    "last_updated": "2016-07-14T01:10:37 -02:00",
    "label_color": [
      178,
      113,
      15
    ],
    "children": [
      "laborum",
      "pariatur",
      "exercitation",
      "sunt",
      "voluptate"
    ]
  },
  {
    "_id": "5d8492e9ea848167f65cd534",
    "index": 23,
    "archived": true,
    "hits": 133,
    "tag": "excepteur",
    "last_updated": "2018-11-26T10:17:08 -01:00",
    "label_color": [
      0,
      216,
      107
    ],
    "children": [
      "laborum",
      "occaecat",
      "minim",
      "consectetur",
      "ipsum"
    ]
  },
  {
    "_id": "5d8492e9d865eac2a558111d",
    "index": 24,
    "archived": true,
    "hits": 80,
    "tag": "sit",
    "last_updated": "2018-09-14T09:53:49 -02:00",
    "label_color": [
      108,
      249,
      234
    ],
    "children": [
      "laboris",
      "exercitation",
      "sint",
      "in",
      "Lorem",
      "excepteur",
      "do",
      "laboris",
      "anim"
    ]
  },
  {
    "_id": "5d8492e9afbbb4a785685b1c",
    "index": 25,
    "archived": true,
    "hits": 117,
    "tag": "cupidatat",
    "last_updated": "2017-05-08T04:47:38 -02:00",
    "label_color": [
      92,
      200,
      214
    ],
    "children": [
      "in",
      "cillum",
      "exercitation",
      "occaecat",
      "ullamco",
      "deserunt"
    ]
  },
  {
    "_id": "5d8492e92e845dd989482109",
    "index": 26,
    "archived": false,
    "hits": 603,
    "tag": "et",
    "last_updated": "2019-04-09T12:14:53 -02:00",
    "label_color": [
      174,
      13,
      180
    ],
    "children": [
      "voluptate",
      "non",
      "nulla",
      "adipisicing"
    ]
  },
  {
    "_id": "5d8492e99466ba3572bbca49",
    "index": 27,
    "archived": true,
    "hits": 432,
    "tag": "excepteur",
    "last_updated": "2017-05-01T06:40:20 -02:00",
    "label_color": [
      213,
      237,
      36
    ],
    "children": [
      "nostrud",
      "fugiat",
      "dolor",
      "id"
    ]
  },
  {
    "_id": "5d8492e9a55b6123119f8691",
    "index": 28,
    "archived": true,
    "hits": 589,
    "tag": "duis",
    "last_updated": "2015-06-23T08:30:53 -02:00",
    "label_color": [
      62,
      253,
      51
    ],
    "children": []
  },
  {
    "_id": "5d8492e9e83dc3b47c12604a",
    "index": 29,
    "archived": false,
    "hits": 190,
    "tag": "eu",
    "last_updated": "2014-01-29T09:09:01 -01:00",
    "label_color": [
      49,
      107,
      187
    ],
    "children": [
      "in",
      "amet",
      "non",
      "id",
      "aliquip",
      "sit",
      "culpa",
      "nisi",
      "qui"
    ]
  },
  {
    "_id": "5d8492e9eae4198f6aa67de9",
    "index": 30,
    "archived": false,
    "hits": 715,
    "tag": "voluptate",
    "last_updated": "2016-07-15T11:58:38 -02:00",
    "label_color": [
      148,
      254,
      8
    ],
    "children": [
      "aliqua",
      "minim",
      "in",
      "pariatur",
      "laboris",
      "mollit",
      "proident",
      "aliquip"
    ]
  },
  {
    "_id": "5d8492e946d861bf0b9cd5f1",
    "index": 31,
    "archived": false,
    "hits": 693,
    "tag": "commodo",
    "last_updated": "2016-08-01T04:10:34 -02:00",
    "label_color": [
      182,
      35,
      23
    ],
    "children": [
      "nulla",
      "deserunt",
      "ullamco",
      "cupidatat",
      "laboris",
      "consectetur",
      "magna",
      "occaecat",
      "ex",
      "nulla"
    ]
  },
  {
    "_id": "5d8492e93b669ef1be41e76d",
    "index": 32,
    "archived": true,
    "hits": 450,
    "tag": "in",
    "last_updated": "2018-12-10T10:29:06 -01:00",
    "label_color": [
      167,
      224,
      95
    ],
    "children": [
      "proident",
      "aute"
    ]
  },
  {
    "_id": "5d8492e93a39d388e54623ae",
    "index": 33,
    "archived": true,
    "hits": 483,
    "tag": "duis",
    "last_updated": "2019-08-28T01:15:02 -02:00",
    "label_color": [
      18,
      231,
      167
    ],
    "children": [
      "aliqua",
      "aute",
      "minim"
    ]
  },
  {
    "_id": "5d8492e9c227671a294b729a",
    "index": 34,
    "archived": true,
    "hits": 39,
    "tag": "nisi",
    "last_updated": "2015-08-20T06:32:20 -02:00",
    "label_color": [
      180,
      130,
      54
    ],
    "children": [
      "ipsum",
      "laboris",
      "eiusmod",
      "in",
      "reprehenderit",
      "enim",
      "elit",
      "mollit",
      "mollit",
      "id"
    ]
  },
  {
    "_id": "5d8492e993149c0e40dcb30f",
    "index": 35,
    "archived": false,
    "hits": 573,
    "tag": "minim",
    "last_updated": "2015-12-18T04:16:19 -01:00",
    "label_color": [
      225,
      0,
      248
    ],
    "children": [
      "aute",
      "eiusmod",
      "aute"
    ]
  },
  {
    "_id": "5d8492e938f6a37b9f336c23",
    "index": 36,
    "archived": false,
    "hits": 730,
    "tag": "et",
    "last_updated": "2014-09-18T07:22:32 -02:00",
    "label_color": [
      100,
      113,
      174
    ],
    "children": [
      "magna",
      "commodo"
    ]
  },
  {
    "_id": "5d8492e98aacd7eff89d08aa",
    "index": 37,
    "archived": true,
    "hits": 425,
    "tag": "exercitation",
    "last_updated": "2017-08-06T07:19:06 -02:00",
    "label_color": [
      184,
      225,
      67
    ],
    "children": [
      "est",
      "esse",
      "cillum",
      "commodo",
      "est",
      "duis",
      "minim"
    ]
  },
  {
    "_id": "5d8492e990890ac875a9226d",
    "index": 38,
    "archived": true,
    "hits": 88,
    "tag": "labore",
    "last_updated": "2017-07-02T04:23:01 -02:00",
    "label_color": [
      142,
      107,
      76
    ],
    "children": [
      "enim",
      "aute",
      "nulla"
    ]
  },
  {
    "_id": "5d8492e9a8226f9aa14cc77b",
    "index": 39,
    "archived": false,
    "hits": 579,
    "tag": "do",
    "last_updated": "2017-01-17T01:13:59 -01:00",
    "label_color": [
      222,
      146,
      206
    ],
    "children": []
  },
  {
    "_id": "5d8492e92ea16b0d478d96ab",
    "index": 40,
    "archived": false,
    "hits": 755,
    "tag": "tempor",
    "last_updated": "2015-07-03T04:11:17 -02:00",
    "label_color": [
      83,
      213,
      0
    ],
    "children": [
      "culpa",
      "consectetur",
      "laborum",
      "occaecat",
      "labore",
      "aliqua"
    ]
  },
  {
    "_id": "5d8492e948da04101555a6b4",
    "index": 41,
    "archived": false,
    "hits": 177,
    "tag": "est",
    "last_updated": "2019-04-24T05:58:16 -02:00",
    "label_color": [
      71,
      202,
      18
    ],
    "children": [
      "reprehenderit",
      "elit",
      "consequat"
    ]
  },
  {
    "_id": "5d8492e99456f70ced766ec4",
    "index": 42,
    "archived": true,
    "hits": 591,
    "tag": "irure",
    "last_updated": "2014-07-09T06:43:58 -02:00",
    "label_color": [
      226,
      147,
      121
    ],
    "children": [
      "magna",
      "ea",
      "enim",
      "commodo",
      "cupidatat",
      "cupidatat",
      "proident",
      "commodo",
      "aute",
      "proident"
    ]
  },
  {
    "_id": "5d8492e9b976f5c1bf5c425d",
    "index": 43,
    "archived": false,
    "hits": 750,
    "tag": "cillum",
    "last_updated": "2017-02-21T06:03:24 -01:00",
    "label_color": [
      135,
      138,
      129
    ],
    "children": [
      "occaecat",
      "proident",
      "tempor",
      "nostrud",
      "laboris",
      "sint",
      "sunt",
      "deserunt"
    ]
  },
  {
    "_id": "5d8492e9c4eb157deffb6897",
    "index": 44,
    "archived": false,
    "hits": 604,
    "tag": "in",
    "last_updated": "2017-04-21T02:00:00 -02:00",
    "label_color": [
      231,
      155,
      228
    ],
    "children": [
      "do"
    ]
  },
  {
    "_id": "5d8492e95ef30b6a6ec5dc99",
    "index": 45,
    "archived": true,
    "hits": 418,
    "tag": "in",
    "last_updated": "2015-02-12T05:40:04 -01:00",
    "label_color": [
      116,
      35,
      209
    ],
    "children": [
      "irure",
      "Lorem",
      "aute",
      "elit",
      "fugiat",
      "eiusmod",
      "excepteur",
      "aute",
      "minim",
      "ipsum"
    ]
  },
  {
    "_id": "5d8492e94387b96cd587a84b",
    "index": 46,
    "archived": true,
    "hits": 339,
    "tag": "eu",
    "last_updated": "2019-08-15T11:03:25 -02:00",
    "label_color": [
      6,
      74,
      236
    ],
    "children": [
      "culpa",
      "ea",
      "cillum",
      "proident",
      "proident",
      "consectetur",
      "irure"
    ]
  },
  {
    "_id": "5d8492e99c473c3b86c53bbe",
    "index": 47,
    "archived": true,
    "hits": 117,
    "tag": "velit",
    "last_updated": "2016-01-25T11:02:36 -01:00",
    "label_color": [
      204,
      192,
      69
    ],
    "children": [
      "sit",
      "pariatur",
      "excepteur",
      "consequat",
      "nulla"
    ]
  },
  {
    "_id": "5d8492e96c75891f5b959d1f",
    "index": 48,
    "archived": false,
    "hits": 761,
    "tag": "velit",
    "last_updated": "2019-03-04T10:25:02 -01:00",
    "label_color": [
      100,
      81,
      165
    ],
    "children": []
  },
  {
    "_id": "5d8492e92c73e3dcf30db92a",
    "index": 49,
    "archived": false,
    "hits": 23,
    "tag": "adipisicing",
    "last_updated": "2019-09-01T12:36:01 -02:00",
    "label_color": [
      46,
      132,
      26
    ],
    "children": []
  },
  {
    "_id": "5d8492e97c4be1c0a4155a70",
    "index": 50,
    "archived": true,
    "hits": 689,
    "tag": "cillum",
    "last_updated": "2015-09-14T04:54:26 -02:00",
    "label_color": [
      131,
      90,
      140
    ],
    "children": [
      "labore",
      "ad",
      "occaecat",
      "ipsum",
      "sit",
      "veniam",
      "deserunt",
      "sint",
      "ex"
    ]
  },
  {
    "_id": "5d8492e928cb184f8b086530",
    "index": 51,
    "archived": false,
    "hits": 146,
    "tag": "nulla",
    "last_updated": "2014-05-16T08:38:19 -02:00",
    "label_color": [
      46,
      178,
      122
    ],
    "children": []
  },
  {
    "_id": "5d8492e9244572e274c6a6fa",
    "index": 52,
    "archived": true,
    "hits": 592,
    "tag": "laborum",
    "last_updated": "2015-11-30T03:48:58 -01:00",
    "label_color": [
      246,
      191,
      70
    ],
    "children": []
  },
  {
    "_id": "5d8492e983b2a30dcf81e0e4",
    "index": 53,
    "archived": true,
    "hits": 524,
    "tag": "eiusmod",
    "last_updated": "2014-11-09T09:40:40 -01:00",
    "label_color": [
      251,
      213,
      109
    ],
    "children": [
      "commodo",
      "ad",
      "adipisicing",
      "sit",
      "ipsum",
      "quis"
    ]
  },
  {
    "_id": "5d8492e9582d2a170d447a31",
    "index": 54,
    "archived": true,
    "hits": 11,
    "tag": "sit",
    "last_updated": "2016-01-12T09:08:02 -01:00",
    "label_color": [
      141,
      187,
      100
    ],
    "children": [
      "tempor",
      "Lorem",
      "aute"
    ]
  },
  {
    "_id": "5d8492e97373df0c14890d79",
    "index": 55,
    "archived": false,
    "hits": 352,
    "tag": "adipisicing",
    "last_updated": "2015-11-11T01:49:24 -01:00",
    "label_color": [
      162,
      142,
      151
    ],
    "children": [
      "do"
    ]
  },
  {
    "_id": "5d8492e9c04e3115eba35457",
    "index": 56,
    "archived": false,
    "hits": 533,
    "tag": "ipsum",
    "last_updated": "2018-08-28T12:21:38 -02:00",
    "label_color": [
      242,
      78,
      231
    ],
    "children": []
  },
  {
    "_id": "5d8492e95aba78e0d9afbdad",
    "index": 57,
    "archived": false,
    "hits": 111,
    "tag": "aliquip",
    "last_updated": "2017-04-15T10:28:37 -02:00",
    "label_color": [
      195,
      61,
      42
    ],
    "children": [
      "aute",
      "in",
      "fugiat",
      "cillum",
      "reprehenderit"
    ]
  },
  {
    "_id": "5d8492e9ec5b572a96003b7e",
    "index": 58,
    "archived": false,
    "hits": 158,
    "tag": "cillum",
    "last_updated": "2018-05-09T11:34:11 -02:00",
    "label_color": [
      79,
      59,
      91
    ],
    "children": [
      "ad",
      "consectetur",
      "esse",
      "dolor",
      "voluptate",
      "officia",
      "laboris",
      "ipsum",
      "aliqua",
      "adipisicing"
    ]
  },
  {
    "_id": "5d8492e955b2536f378d187b",
    "index": 59,
    "archived": false,
    "hits": 521,
    "tag": "ullamco",
    "last_updated": "2017-06-25T12:53:44 -02:00",
    "label_color": [
      11,
      46,
      14
    ],
    "children": [
      "et",
      "irure",
      "dolore",
      "commodo"
    ]
  },
  {
    "_id": "5d8492e91299497a0e2267f9",
    "index": 60,
    "archived": true,
    "hits": 9,
    "tag": "nostrud",
    "last_updated": "2015-01-17T03:24:08 -01:00",
    "label_color": [
      113,
      235,
      84
    ],
    "children": []
  },
  {
    "_id": "5d8492e9abffa577278845d5",
    "index": 61,
    "archived": true,
    "hits": 669,
    "tag": "veniam",
    "last_updated": "2018-07-14T08:50:36 -02:00",
    "label_color": [
      152,
      231,
      119
    ],
    "children": [
      "dolor",
      "incididunt",
      "elit",
      "enim",
      "id"
    ]
  },
  {
    "_id": "5d8492e943ec8f0f248049d6",
    "index": 62,
    "archived": true,
    "hits": 486,
    "tag": "ad",
    "last_updated": "2017-09-20T07:02:31 -02:00",
    "label_color": [
      75,
      175,
      46
    ],
    "children": [
      "excepteur",
      "minim",
      "velit",
      "laborum"
    ]
  },
  {
    "_id": "5d8492e9566309ff535a3de1",
    "index": 63,
    "archived": true,
    "hits": 516,
    "tag": "dolore",
    "last_updated": "2018-02-09T02:10:39 -01:00",
    "label_color": [
      44,
      209,
      158
    ],
    "children": [
      "voluptate",
      "fugiat",
      "ad",
      "fugiat",
      "labore",
      "aute",
      "culpa",
      "ut",
      "Lorem",
      "fugiat"
    ]
  },
  {
    "_id": "5d8492e941d05dbc2ec40373",
    "index": 64,
    "archived": false,
    "hits": 260,
    "tag": "est",
    "last_updated": "2016-07-11T11:43:31 -02:00",
    "label_color": [
      246,
      188,
      208
    ],
    "children": [
      "ut",
      "cupidatat",
      "culpa",
      "duis",
      "adipisicing",
      "tempor",
      "Lorem",
      "magna",
      "Lorem",
      "sunt"
    ]
  },
  {
    "_id": "5d8492e9e2b0e55a983a0667",
    "index": 65,
    "archived": false,
    "hits": 653,
    "tag": "do",
    "last_updated": "2016-05-10T11:40:47 -02:00",
    "label_color": [
      252,
      154,
      133
    ],
    "children": [
      "enim",
      "exercitation",
      "in",
      "aute",
      "excepteur"
    ]
  },
  {
    "_id": "5d8492e92ed46375449fa48e",
    "index": 66,
    "archived": false,
    "hits": 684,
    "tag": "Lorem",
    "last_updated": "2017-12-03T07:31:57 -01:00",
    "label_color": [
      7,
      71,
      176
    ],
    "children": [
      "voluptate",
      "mollit"
    ]
  }
]